%YAML 1.1
%TAG !u! tag:unity3d.com,2011:
--- !u!1045 &1
EditorBuildSettings:
  m_ObjectHideFlags: 0
  serializedVersion: 2
  m_Scenes:
  - enabled: 1
    path: Assets/Scenes/Menu.unity
    guid: 6e843cdb509bb4832805b1381ddb4922
  - enabled: 1
    path: Assets/Scenes/Main.unity
    guid: 8b7515f9c506f4e91be1b0156f2d7523
  - enabled: 1
    path: Assets/Scenes/SelfBattle.unity
    guid: 127633050ccbc44f0a6201bb455215c3
  - enabled: 1
    path: Assets/Scenes/Ultra.unity
    guid: 61ade915f3e774c22b991333701ceab5
  - enabled: 1
    path: Assets/Scenes/Optimizer.unity
    guid: 19733ddfba40a454a9e97f82cc52244e
  m_configObjects:
    com.unity.addressableassets: {fileID: 11400000, guid: fc64d914b86154ec6a521a87cd985250,
      type: 2}
    com.unity.input.settings: {fileID: 11400000, guid: e7143b4f7958f4875953cb1d6df80281,
      type: 2}
